{
    "$schema": "http://json-schema.org/draft-04/schema#",
    "id": "http://okuma.co.za/",
    "type": "object",
    "properties": {
        "orderables": {
            "id": "http://okuma.co.za/orderables",
            "type": "array",
            "items": {
                "id": "http://okuma.co.za/orderables/item",
                "type": "object",
                "additionalProperties": true,
                "properties": {
                    "id": {
                        "id": "http://okuma.co.za/orderables/item/id",
                        "type": "integer",
                        "minimum": 1
                    },
                    "position": {
                        "id": "http://okuma.co.za/orderables/item/position",
                        "type": "integer",
                        "minimum": 1
                    }
                },
                "additionalProperties": false,
                "required": [
                    "id",
                    "position"
                ]
            },
            "additionalItems": false,
            "required": [
                "item"
            ]
        }
    },
    "additionalProperties": false,
    "required": [
        "orderables"
    ]
}
